…
``` r
knitr::opts_chunk$set(warning = FALSE, message = FALSE)
options(scipen=999)
```

``` r
#Loads in FIFA Dataset 
fifa <-  read_csv(file = "data/players_22.csv")
fifa
```

    # A tibble: 19,239 × 110
       sofif…¹ playe…² short…³ long_…⁴ playe…⁵ overall poten…⁶ value…⁷ wage_…⁸   age
         <dbl> <chr>   <chr>   <chr>   <chr>     <dbl>   <dbl>   <dbl>   <dbl> <dbl>
     1  158023 https:… L. Mes… Lionel… RW, ST…      93      93  7.8 e7  320000    34
     2  188545 https:… R. Lew… Robert… ST           92      92  1.20e8  270000    32
     3   20801 https:… Cristi… Cristi… ST, LW       91      91  4.5 e7  270000    36
     4  190871 https:… Neymar… Neymar… LW, CAM      91      91  1.29e8  270000    29
     5  192985 https:… K. De … Kevin … CM, CAM      91      91  1.25e8  350000    30
     6  200389 https:… J. Obl… Jan Ob… GK           91      93  1.12e8  130000    28
     7  231747 https:… K. Mba… Kylian… ST, LW       91      95  1.94e8  230000    22
     8  167495 https:… M. Neu… Manuel… GK           90      90  1.35e7   86000    35
     9  192448 https:… M. ter… Marc-A… GK           90      92  9.9 e7  250000    29
    10  202126 https:… H. Kane Harry … ST           90      90  1.30e8  240000    27
    # … with 19,229 more rows, 100 more variables: dob <date>, height_cm <dbl>,
    #   weight_kg <dbl>, club_team_id <dbl>, club_name <chr>, league_name <chr>,
    #   league_level <dbl>, club_position <chr>, club_jersey_number <dbl>,
    #   club_loaned_from <chr>, club_joined <date>,
    #   club_contract_valid_until <dbl>, nationality_id <dbl>,
    #   nationality_name <chr>, nation_team_id <dbl>, nation_position <chr>,
    #   nation_jersey_number <dbl>, preferred_foot <chr>, weak_foot <dbl>, …
…
    # A tibble: 1 × 1
      mean_ratings
             <dbl>
    1         65.8

The average rating of players in this dataset is around 65 overall.

``` r
#Counting the number of names in FIFA
fifa %>%
  count(short_name, sort = TRUE)
```

    # A tibble: 18,145 × 2
       short_name       n
       <chr>        <int>
     1 J. Rodríguez    13
     2 J. Hernández     9
     3 J. Brown         8
     4 Paulinho         8
     5 J. García        7
     6 J. González      7
     7 L. Rodríguez     7
     8 M. Smith         7
     9 A. Rodríguez     6
    10 J. Clarke        6
    # … with 18,135 more rows

It seems like the most common name is J. Rodriguez.

``` r
#Checking who is the oldest player in the FIFA dataset

fifa %>% 
  group_by(short_name) %>%
  count(age, sort = TRUE) %>% 
  arrange(desc(age))
```

    # A tibble: 19,144 × 3
    # Groups:   short_name [18,145]
       short_name         age     n
       <chr>            <dbl> <int>
     1 K. Miura            54     1
     2 C. Lucchetti        43     1
     3 G. Buffon           43     1
     4 S. Nakamura         43     1
     5 D. Vaca             42     1
     6 K. Ellison          42     1
     7 A. Boruc            41     1
     8 J. Pinto            41     1
     9 K. Stamatopoulos    41     1
    10 P. Da Silva         41     1
    # … with 19,134 more rows
…
